Data import & descriptives
…
Code
df <- read_excel("data/MiCBT RCT data_Bridges repository.xlsx",
                 na = "missing")

Have another look at the data now and see what happened. You can go back and run the previous chunk to see the difference more clearly.

Also, have a look at the naming scheme and see what pattern you find?

The K10 questionnaire is used for pre-intervention measurement and screening, as well as follow-up measurement. Let’s look at the variables containing “K10”.

Code
df %>% 
  select(contains("K10"))

# A tibble: 106 × 7
   K10_Score_GP GPK10_coded TK10_t0 K10_di_t0    TK10_t1 TK10_t2 TK10_t3
          <dbl>       <dbl>   <dbl> <chr>          <dbl>   <dbl>   <dbl>
 1           33           1      30 30+               25      30      21
 2           24           0      30 30+               27      31      32
 3           36           1      38 30+               28      18      23
 4           29           0      27 less than 30      21      24      27
 5           27           0      22 less than 30      32      NA      23
 6           29           0      16 less than 30      15      16      17
 7           23           0      23 less than 30      20      15      17
 8           27           0      30 30+               42      27      19
 9           29           0      25 less than 30      17      16      15
10           30           1      29 less than 30      21      17      21
# ℹ 96 more rows
…
